ITEM: TIMESTEP
0
ITEM: NUMBER OF ATOMS
1162
ITEM: BOX BOUNDS xy xz yz pp pp ff
-0.52961 6.08401 1.65341
-0.478158 15.8897 0
58.7909 296.609 0
ITEM: ATOMS x y z id
0.460877 0.0433442 58.7909 1
1.27408 0.743047 61.3305 2
3.72431 1.75176 60.2876 3
4.58275 2.41086 62.8832 4
2.09571 5.41893 59.934 5
2.09496 3.42305 61.9175 6
2.9359 6.10606 62.4778 7
4.55703 4.39682 60.9064 8
2.10988 1.4177 63.9229 9
2.9269 2.0856 66.58 10
4.58544 0.412813 64.9391 11
0.447069 3.08693 65.5467 12
1.27226 5.75739 66.1612 13
2.935 4.09535 64.5231 14
5.40548 7.08864 61.5211 15
5.41213 5.08751 63.4884 16
3.75685 6.76296 65.133 17
3.75179 4.75762 67.1916 18
4.5776 7.42817 67.8038 19
1.26301 9.77174 62.1075 20
2.89467 8.09982 60.4797 21
3.72173 10.7565 61.0834 22
3.75296 8.76228 63.0715 23
4.58001 11.4287 63.6869 24
2.10454 10.4326 64.7277 25
2.09846 8.42929 66.7808 26
2.92475 11.1002 67.3961 27
4.57851 9.4311 65.7454 28
0.445542 1.08135 67.6036 29
1.27122 1.74908 70.2658 30
2.92526 0.0783373 68.6272 31
3.7514 2.75192 69.2419 32
3.75109 0.746467 71.2899 33
4.57728 3.41922 71.9045 34
2.09698 6.42537 68.8292 35
2.09713 4.42143 70.8793 36
2.92352 7.09319 71.4936 37
4.57745 5.42404 69.855 38
1.27029 10.7669 71.0834 39
2.92394 9.09703 69.445 40
5.40544 12.1003 66.3646 41
5.40348 10.0987 68.4179 42
6.23112 12.7698 69.0343 43
5.40387 8.09543 70.4687 44
5.40351 6.09131 72.5186 45
3.75099 11.7687 70.0599 46
3.75026 9.7651 72.1087 47
4.57703 12.4373 72.7235 48
2.0775 14.4263 60.7281 49
2.10467 12.4302 62.6957 50
2.93619 15.1073 63.2971 51
4.57743 13.4378 61.7231 52
2.93101 13.1029 65.3445 53
5.41595 16.1267 62.2896 54
5.41676 14.1097 64.3234 55
3.75464 15.7763 65.964 56
3.75245 13.7718 68.0122 57
6.23372 14.7742 66.9902 58
2.09851 15.4437 69.6516 59
2.09728 13.4392 71.6987 60
2.92409 16.112 72.3143 61
4.57813 14.4414 70.6749 62
2.09693 2.41677 72.9289 63
2.09631 0.412135 74.9779 64
2.92268 3.08457 75.5926 65
4.57674 1.41441 73.9534 66
0.44284 4.08684 74.5681 67
1.26923 6.75902 75.1826 68
2.92314 5.08903 73.5433 69
3.7496 7.76107 74.1578 70
3.74907 5.75684 76.2072 71
4.57556 8.42906 76.8218 72
2.09642 11.4353 73.7478 73
2.09577 9.43117 75.7972 74
2.92236 12.1034 76.4119 75
4.57621 10.4333 74.7726 76
2.92313 14.1076 74.3628 77
5.40374 15.1097 73.3385 78
5.40286 13.1055 75.3874 79
5.40213 11.1012 77.4365 80
6.22871 13.7735 78.0513 81
3.74896 14.7757 77.0267 82
6.22945 15.7779 76.0023 83
0.442277 2.08234 76.6171 84
0.441624 0.0779598 78.6661 85
1.2681 2.7503 79.2809 86
2.92207 1.08013 77.6416 87
3.74852 3.75248 78.2563 88
3.74789 1.74813 80.3054 89
4.57437 4.42045 80.9201 90
2.09516 7.42694 77.8464 91
2.09457 5.42262 79.8956 92
2.92107 8.09491 80.5103 93
4.57497 6.42478 78.871 94
1.26781 11.7693 80.1004 95
2.9217 10.0992 78.4611 96
5.40148 9.09705 79.4857 97
5.40086 7.09275 81.5348 98
3.74824 12.7715 79.0758 99
3.74758 10.7672 81.125 100
4.57411 13.4395 81.7397 101
2.09435 14.4416 80.7152 102
4.57479 15.4438 79.6906 103
1.27061 3.75404 68.2155 104
1.28119 7.764 64.115 105
1.25449 11.7819 60.1214 106
5.40064 16.1117 82.3545 107
2.09395 3.41829 81.9447 108
2.09331 1.41397 83.9938 109
2.91981 4.08628 84.6085 110
4.57374 2.41613 82.9692 111
1.26652 7.76073 84.1987 112
2.92044 6.0906 82.5594 113
5.40024 5.08844 83.584 114
3.74694 8.76288 83.1741 115
3.74631 6.75858 85.2233 116
4.57282 9.43087 85.838 117
2.09368 12.4373 82.7643 118
2.09304 10.4331 84.8134 119
2.91954 13.1053 85.4281 120
4.57346 11.4352 83.7888 121
2.9202 15.1096 83.379 122
5.39998 14.1075 84.4036 123
5.39933 12.1032 86.4527 124
6.22585 14.7755 87.0674 125
3.74606 15.7776 86.0429 126
1.2698 8.76318 73.1331 127
1.2687 4.75468 77.2318 128
1.26746 0.745968 81.3299 129
0.439381 3.08412 85.6331 130
0.438736 1.07982 87.6822 131
1.26525 3.75211 88.2969 132
2.91916 2.08197 86.6576 133
3.74567 4.75427 87.2724 134
3.74503 2.74996 89.3215 135
4.57154 5.42225 89.9362 136
2.09239 8.42871 86.8625 137
2.09175 6.42441 88.9117 138
2.91826 9.09671 89.5264 139
4.57218 7.42656 87.8871 140
2.9189 11.101 87.4773 141
5.39869 10.0989 88.5018 142
5.39805 8.09456 90.5509 143
3.74541 13.7733 88.092 144
3.74477 11.769 90.1411 145
4.57128 14.4413 90.7559 146
6.2252 12.7712 89.1166 147
2.09149 15.4435 89.7313 148
1.26716 9.76503 82.1496 149
1.26589 5.75642 86.2478 150
1.2646 1.74781 90.346 151
2.09111 4.4201 90.9608 152
2.09046 2.41581 93.0099 153
2.91697 5.0881 93.6246 154
4.5709 3.41795 91.9853 155
3.74439 0.74566 91.3706 156
4.57025 1.41366 94.0344 157
1.26369 8.76255 93.2148 158
2.91762 7.09241 91.5755 159
5.39741 6.09025 92.6001 160
3.74413 9.7647 92.1902 161
3.74348 7.76039 94.2394 162
4.57 10.4327 94.8541 163
2.09085 13.4392 91.7804 164
2.0902 11.4348 93.8295 165
2.91672 14.1072 94.4443 166
4.57064 12.437 92.805 167
2.91736 16.1114 92.3951 168
5.39715 15.1093 93.4197 169
5.39651 13.105 95.4688 170
6.22301 15.7773 96.0836 171
1.26434 10.7668 91.1657 172
1.26305 6.75824 95.2639 173
1.26177 2.74964 99.3621 174
0.436544 4.08595 94.6492 175
0.4359 2.08165 96.6983 176
1.26241 4.75394 97.313 177
2.91633 3.0838 95.6737 178
3.74284 5.75609 96.2885 179
3.7422 3.75179 98.3376 180
4.56871 6.42408 98.9523 181
2.08982 0.411502 95.059 182
2.91569 1.0795 97.7229 183
2.08956 9.43053 95.8786 184
2.08892 7.42623 97.9278 185
2.91543 10.0985 98.5425 186
4.56935 8.42838 96.9032 187
2.91607 12.1028 96.4934 188
5.39585 11.1006 97.5179 189
5.39521 9.09638 99.5671 190
3.74258 14.7752 97.1081 191
3.74194 12.7708 99.1572 192
4.56845 15.4432 99.772 193
6.22236 13.773 98.1327 194
1.26151 11.7686 100.182 195
1.26022 7.76007 104.28 196
2.08828 5.42193 99.9769 197
2.08763 3.41763 102.026 198
2.91414 6.08993 102.641 199
4.56806 4.41978 101.001 200
0.435256 0.0773433 98.7474 201
1.26112 0.745336 101.411 202
3.74156 1.74748 100.387 203
4.56741 2.41547 103.051 204
1.26087 9.76437 102.231 205
2.91479 8.09423 100.592 206
5.39457 7.09208 101.616 207
5.39393 5.08778 103.665 208
3.7413 10.7665 101.206 209
3.74066 8.76222 103.255 210
4.56716 11.4345 103.87 211
2.08802 14.441 100.797 212
2.08738 12.4366 102.846 213
2.91389 15.109 103.46 214
4.5678 13.4388 101.821 215
5.39431 16.1111 102.436 216
5.39367 14.1068 104.485 217
1.25894 3.75146 108.378 218
4.57309 0.411818 85.0183 219
2.91852 0.0776659 88.7067 220
0.433068 3.08347 105.714 221
1.25958 5.75577 106.329 222
2.9135 4.08562 104.69 223
3.74 6.75792 105.305 224
3.73936 4.75361 107.354 225
4.56587 7.42591 107.968 226
2.08699 1.41332 104.075 227
2.91286 2.08132 106.739 228
4.56677 0.411176 105.1 229
2.08673 10.4324 104.895 230
2.08609 8.42806 106.944 231
2.91259 11.1003 107.559 232
4.56651 9.43021 105.919 233
2.91324 13.1046 105.509 234
5.39303 12.1025 106.534 235
5.39238 10.0982 108.583 236
6.21889 12.7705 109.198 237
3.73975 15.777 106.124 238
3.7391 13.7726 108.173 239
6.21954 14.7748 107.149 240
1.25739 8.76189 113.296 241
2.08545 6.42375 108.993 242
2.08479 4.41945 111.042 243
2.91131 7.09175 111.657 244
4.56523 5.4216 110.018 245
0.432424 1.07917 107.764 246
1.25829 1.74716 110.427 247
2.91221 0.0770175 108.788 248
3.73872 2.74931 109.403 249
3.73807 0.745009 111.452 250
4.56459 3.4173 112.067 251
1.25804 10.7662 111.247 252
2.91195 9.09606 109.608 253
5.39174 8.09391 110.632 254
5.3911 6.0896 112.681 255
3.73846 11.7683 110.222 256
3.73782 9.76405 112.272 257
4.56433 12.4363 112.886 258
2.08519 15.4428 109.813 259
2.08454 13.4385 111.862 260
2.91105 16.1107 112.476 261
4.56497 14.4406 110.837 262
5.39084 15.1086 113.501 263
1.2561 4.75329 117.394 264
0.430236 4.0853 114.731 265
1.25674 6.75759 115.345 266
2.91066 5.08745 113.706 267
3.73717 7.75974 114.321 268
3.73653 5.75544 116.37 269
4.56304 8.42773 116.985 270
2.08415 2.41515 113.091 271
2.08351 0.410851 115.14 272
2.91002 3.08315 115.755 273
4.56394 1.413 114.116 274
2.08389 11.4342 113.911 275
2.08325 9.42988 115.96 276
2.90976 12.1022 116.575 277
4.56369 10.4321 114.935 278
2.91041 14.1065 114.526 279
5.3902 13.1043 115.55 280
5.38955 11.1 117.599 281
6.21606 13.7723 118.214 282
3.73627 14.7745 117.189 283
6.21671 15.7766 116.165 284
1.25481 0.744684 121.493 285
1.25456 9.76372 122.312 286
2.08261 7.42558 118.009 287
2.08197 5.42128 120.058 288
2.90848 8.09358 120.673 289
4.5624 6.42343 119.034 290
0.429592 2.081 116.78 291
0.428948 0.0766915 118.829 292
1.25546 2.74899 119.443 293
2.90938 1.07885 117.804 294
3.73589 3.75114 118.419 295
3.73525 1.74683 120.468 296
4.56176 4.41913 121.083 297
1.2552 11.768 120.263 298
2.90912 10.0979 118.624 299
5.38891 9.09573 119.648 300
5.38827 7.09143 121.698 301
3.73563 12.7702 119.239 302
3.73499 10.7659 121.288 303
4.5615 13.4382 121.902 304
2.08171 14.4403 120.878 305
4.56214 15.4424 119.853 306
5.388 16.1104 122.517 307
1.25327 5.75511 126.41 308
4.56047 0.410525 125.181 309
1.25391 7.75942 124.361 310
2.90783 6.08928 122.722 311
3.73435 8.76157 123.337 312
3.7337 6.75727 125.386 313
4.5602 9.42956 126.001 314
2.08132 3.41697 122.107 315
2.08068 1.41267 124.156 316
2.90719 4.08497 124.771 317
4.56111 2.41482 123.132 318
5.38762 5.08713 123.747 319
2.08107 12.436 122.927 320
2.08042 10.4318 124.976 321
2.90693 13.104 125.591 322
4.56086 11.4339 123.952 323
2.90758 15.1083 123.542 324
5.38736 14.1062 124.566 325
5.38672 12.1019 126.615 326
6.21323 14.7742 127.23 327
3.73345 15.7763 126.206 328
1.25198 1.74651 130.509 329
1.25173 10.7655 131.328 330
2.90591 0.0763657 128.869 331
2.07978 8.42741 127.025 332
2.07914 6.4231 129.074 333
2.90565 9.0954 129.689 334
4.55956 7.42526 128.05 335
0.42676 3.08282 125.796 336
0.426116 1.07852 127.845 337
1.25263 3.75081 128.46 338
2.90655 2.08067 126.82 339
3.73306 4.75296 127.435 340
3.73242 2.74866 129.484 341
4.55892 5.42095 130.099 342
2.90629 11.0997 127.64 343
5.38607 10.0975 128.664 344
5.38543 8.09324 130.714 345
3.7328 13.772 128.255 346
3.73215 11.7677 130.304 347
4.55866 14.44 130.919 348
6.21258 12.7699 129.279 349
2.07888 15.4421 129.894 350
1.25044 6.75694 135.427 351
1.25108 8.76124 133.377 352
2.90501 7.09109 131.738 353
3.73151 9.76339 132.353 354
3.73086 7.75909 134.402 355
4.55738 10.4314 135.017 356
2.07849 4.4188 131.123 357
2.07785 2.4145 133.173 358
2.90435 5.0868 133.787 359
4.55828 3.41665 132.148 360
5.38479 6.08894 132.763 361
2.07824 13.4379 131.943 362
2.07759 11.4335 133.992 363
2.9041 14.1059 134.607 364
4.55802 12.4357 132.968 365
3.73176 0.744358 131.533 366
4.55763 1.41235 134.197 367
2.90475 16.1101 132.558 368
5.38453 15.108 133.582 369
5.38389 13.1037 135.631 370
6.2104 15.776 136.246 371
1.24914 2.74834 139.525 372
1.24889 11.7673 140.344 373
2.07694 9.42923 136.041 374
2.0763 7.42493 138.09 375
2.90281 10.0972 138.705 376
4.55673 8.42708 137.066 377
0.423927 4.08465 134.812 378
0.423283 2.08035 136.861 379
1.2498 4.75264 137.476 380
2.90371 3.0825 135.836 381
3.73022 5.75479 136.451 382
3.72958 3.75049 138.5 383
4.55609 6.42278 139.115 384
2.90345 12.1015 136.656 385
5.38324 11.0993 137.681 386
5.3826 9.09507 139.73 387
3.72996 14.7739 137.271 388
3.72932 12.7695 139.32 389
4.55583 15.4418 139.935 390
6.20975 13.7717 138.295 391
2.07721 0.4102 135.222 392
2.90307 1.0782 137.886 393
1.24761 7.75877 144.443 394
1.24825 9.76307 142.394 395
2.90217 8.09293 140.754 396
3.72868 10.7652 141.369 397
3.72804 8.76092 143.418 398
4.55455 11.4332 144.033 399
2.07566 5.42063 140.14 400
2.07501 3.41633 142.189 401
2.90152 6.08862 142.803 402
4.55545 4.41848 141.164 403
5.38196 7.09077 141.779 404
5.38131 5.08647 143.828 405
2.0754 14.4397 140.959 406
2.07476 12.4353 143.008 407
2.90127 15.1077 143.623 408
4.55519 13.4375 141.984 409
0.422639 0.0760405 138.91 410
1.2485 0.744034 141.574 411
3.72893 1.74619 140.549 412
4.5548 2.41418 143.213 413
5.3817 16.1098 142.598 414
5.38106 14.1055 144.648 415
1.2463 3.75019 148.541 416
2.07412 10.4311 145.057 417
2.07348 8.42676 147.107 418
2.9 11.099 147.721 419
4.55391 9.4289 146.082 420
0.420443 3.08218 145.877 421
1.24696 5.75448 146.492 422
2.90088 4.08432 144.853 423
3.72739 6.75662 145.467 424
3.72674 4.75233 147.516 425
4.55327 7.42462 148.131 426
2.90063 13.1033 145.672 427
5.38043 12.1012 146.697 428
5.37979 10.0969 148.746 429
6.2063 12.7692 149.361 430
3.72713 15.7756 146.287 431
3.7265 13.7713 148.336 432
6.20692 14.7735 147.311 433
2.07436 1.41203 144.238 434
2.90023 2.08003 146.902 435
4.55415 0.409874 145.262 436
1.24481 8.76062 153.459 437
1.24547 10.7649 151.41 438
2.89936 9.09474 149.77 439
3.72589 11.767 150.385 440
3.72526 9.76273 152.434 441
4.55179 12.4349 153.049 442
2.07282 6.42248 149.156 443
2.07214 4.41821 151.205 444
2.89869 7.09049 151.82 445
4.5526 5.42035 150.18 446
5.37913 8.09261 150.795 447
5.37844 6.08838 152.844 448
2.07257 15.4414 149.975 449
2.07197 13.4371 152.024 450
2.89843 16.1094 152.639 451
4.55237 14.4393 151 452
0.419793 1.07787 147.926 453
1.24564 1.74587 150.59 454
2.89958 0.0757069 148.951 455
3.72608 2.74804 149.565 456
3.72543 0.743698 151.615 457
4.5519 3.41606 152.229 458
5.37825 15.1072 153.664 459
1.24319 4.75223 157.557 460
2.0714 11.4328 154.074 461
2.07075 9.42863 156.123 462
2.8974 12.1007 156.738 463
4.55119 10.4306 155.098 464
0.417479 4.08412 154.893 465
1.24406 6.75646 155.508 466
2.89796 5.08626 153.869 467
3.72456 7.75854 154.484 468
3.72372 5.75436 156.533 469
4.55045 8.42661 157.148 470
2.89789 14.1051 154.688 471
5.37774 13.1028 155.713 472
5.37722 11.0986 157.762 473
6.20377 13.7707 158.377 474
3.72382 14.7729 157.352 475
6.20413 15.7752 156.327 476
2.07146 2.41389 153.254 477
2.07086 0.409464 155.303 478
2.89723 3.08193 155.918 479
4.55125 1.41169 154.278 480
1.24205 0.742473 161.654 481
1.24249 9.76365 162.477 482
1.24325 11.7667 160.427 483
2.89679 10.0967 158.787 484
3.72354 12.7686 159.402 485
3.72313 10.7651 161.452 486
4.54995 13.4365 162.066 487
2.06988 7.42462 158.172 488
2.06875 5.4204 160.221 489
2.89574 8.09307 160.837 490
4.5494 6.42254 159.196 491
5.37644 9.09486 159.812 492
5.37497 7.09101 161.86 493
2.0697 14.4384 161.04 494
4.5498 15.4406 160.016 495
0.416791 2.07969 156.942 496
0.416352 0.0750314 158.991 497
1.2424 2.7476 159.605 498
2.89663 1.07737 157.966 499
3.72286 3.74995 158.581 500
3.72225 1.74503 160.63 501
4.54825 4.41789 161.245 502
5.3757 16.1077 162.679 503
1.23745 5.75455 166.568 504
4.54776 0.405058 165.343 505
2.06988 12.4349 163.091 506
2.06955 10.434 165.142 507
2.89715 13.1028 165.757 508
4.55013 11.4341 164.117 509
1.24028 7.76049 164.524 510
2.89416 6.08893 162.884 511
3.7219 8.76247 163.502 512
3.71968 6.75891 165.548 513
4.54909 9.43462 166.168 514
2.89586 15.1054 163.704 515
5.3767 14.1035 164.731 516
5.37853 12.103 166.786 517
6.20334 14.7674 167.399 518
3.7215 15.7704 166.368 519
2.06767 3.41526 162.269 520
2.06727 1.40885 164.317 521
2.89235 4.08273 164.93 522
4.54743 2.41199 163.293 523
5.37322 5.08584 163.907 524
1.22776 1.72215 170.668 525
1.24952 10.7904 171.538 526
2.89082 0.0635959 169.031 527
2.89815 11.1063 167.81 528
3.72435 13.7677 168.426 529
3.72784 11.779 170.491 530
4.54694 14.428 171.097 531
6.20759 12.7687 169.464 532
2.06613 8.43322 167.185 533
2.06321 6.42786 169.222 534
2.89187 9.1104 169.844 535
4.54646 7.43442 168.21 536
5.37823 10.1099 168.842 537
5.37987 8.1137 170.877 538
2.06639 15.4241 170.071 539
0.411532 3.07769 165.954 540
0.411012 1.0669 168.006 541
1.23468 3.7414 168.611 542
2.89143 2.07344 166.977 543
3.71658 4.75087 167.589 544
3.71187 2.73688 169.634 545
4.54412 5.42576 170.238 546
1.28176 6.81494 175.506 547
2.07894 13.4243 172.155 548
2.09346 11.4569 174.248 549
2.89668 14.0557 174.863 550
4.57068 12.4546 173.173 551
1.27803 8.78547 173.529 552
2.89727 7.10114 171.865 553
3.71786 9.78239 172.486 554
3.71669 7.78719 174.531 555
4.58489 10.3923 175.051 556
2.87126 16.0631 172.752 557
5.35361 15.0759 173.762 558
5.37205 13.1091 175.997 559
6.06468 15.8371 176.311 560
2.05472 4.41347 171.257 561
2.03777 2.39 173.304 562
2.88622 5.09677 173.881 563
4.53042 3.41536 172.272 564
5.36538 6.10548 172.896 565
3.70268 0.716614 171.69 566
4.49047 1.41975 174.3 567
1.25602 2.74472 59.3608 568
4.41174 11.0593 177.612 569
3.30161 14.6983 177.609 570
3.73933 12.8041 59.166 571
4.58102 15.4424 59.748 572
2.10089 9.66326 176.456 573
4.6239 8.33518 177.148 574
5.38864 9.09391 59.5538 575
0.417384 4.07577 174.902 576
0.309234 2.09599 176.943 577
2.85864 3.13017 175.906 578
3.77992 5.70004 176.471 579
4.5889 6.39775 58.9814 580
1.96445 0.395484 175.366 581
1.22733 4.80115 177.49 582
3.73882 6.29031 296.234 583
3.627 3.9605 178.719 584
4.55007 5.87175 182.177 585
4.95502 6.5144 179.431 586
2.75787 7.65308 180.729 587
2.83706 9.60371 182.74 588
3.61605 10.28 180.097 589
5.27126 8.57945 181.673 590
4.52467 7.87914 184.287 591
4.53456 9.90612 186.372 592
5.34458 10.574 183.736 593
4.53414 12.9851 179.55 594
4.58857 14.9989 181.533 595
5.61974 15.4391 178.932 596
2.87701 11.5994 184.768 597
2.89071 13.6098 186.801 598
3.71197 14.2895 184.144 599
5.36152 12.5974 185.783 600
6.19304 13.2807 183.158 601
6.20408 15.2851 185.174 602
2.89652 6.58351 189.641 603
2.89435 8.58903 191.697 604
3.71783 9.25086 189.034 605
5.37491 7.58638 190.672 606
4.54149 11.9254 188.428 607
4.54426 13.9385 190.471 608
5.37001 14.6118 187.817 609
2.0468 6.89199 183.278 610
2.89305 15.6183 188.83 611
4.54927 6.92148 193.336 612
4.54886 8.92644 195.386 613
5.37409 9.59282 192.723 614
6.19915 12.2667 192.109 615
6.20098 14.2729 194.155 616
2.89402 10.5959 193.747 617
2.89484 12.6019 195.795 618
3.71981 13.2698 193.132 619
5.37449 11.5993 194.771 620
2.05846 10.9209 187.406 621
1.24012 6.24406 185.942 622
1.23741 8.24756 188.009 623
2.04927 8.90058 185.35 624
3.7198 7.24017 186.968 625
4.54709 15.9445 192.516 626
1.20523 11.3141 181.133 627
2.12653 13.884 180.569 628
3.72419 12.2597 182.138 629
1.14263 9.45081 179.158 630
2.11377 9.89745 296.609 631
2.31292 7.25515 178.108 632
2.06328 15.9711 182.509 633
3.72647 16.2976 186.162 634
2.06989 5.91951 192.309 635
4.54921 10.9316 197.434 636
4.55 12.9361 199.483 637
5.37557 13.6043 196.819 638
2.89697 5.58673 198.663 639
2.89732 7.59118 200.712 640
3.72316 8.259 198.049 641
5.37723 6.58893 199.688 642
1.23802 10.2574 190.062 643
2.06317 12.9348 189.45 644
3.71835 11.2616 191.086 645
2.06627 14.9428 191.492 646
6.20256 16.277 196.203 647
2.89599 14.6065 197.843 648
5.37669 15.6086 198.867 649
2.06884 9.92899 196.41 650
1.24315 5.25247 194.974 651
1.24299 7.25665 197.024 652
2.06888 7.92374 194.361 653
3.7231 6.25445 195.999 654
4.55128 5.92107 202.351 655
4.55183 7.92547 204.401 656
5.37767 8.59342 201.737 657
6.20477 13.2702 203.171 658
2.89785 9.59566 202.761 659
2.8985 11.6001 204.81 660
3.72429 12.2681 202.147 661
5.37827 10.5978 203.786 662
3.72156 15.275 195.179 663
4.55086 14.9404 201.532 664
2.07093 4.91889 201.327 665
1.24323 9.26133 199.073 666
1.24382 11.2659 201.122 667
2.06946 11.9339 198.458 668
3.7236 10.2637 200.098 669
2.07032 13.9383 200.507 670
4.55246 9.92984 206.45 671
4.55311 11.9341 208.499 672
5.37895 12.6022 205.835 673
2.89949 4.58519 207.679 674
2.90011 6.58952 209.728 675
3.72598 7.2575 207.064 676
5.3799 5.58735 208.704 677
6.2055 15.2745 205.22 678
2.89919 13.6043 206.859 679
2.89986 15.6086 208.909 680
3.72574 16.2766 206.245 681
5.37963 14.6065 207.884 682
2.07203 8.92766 205.425 683
1.24498 4.25098 203.991 684
1.24556 6.25533 206.04 685
2.07144 6.92327 203.376 686
3.72538 5.25315 205.015 687
2.07115 15.9425 202.556 688
3.72504 14.2723 204.196 689
4.55404 4.91938 211.367 690
4.55467 6.92369 213.417 691
5.38054 7.59168 210.753 692
2.90075 8.59383 211.777 693
2.90139 10.5981 213.826 694
3.72725 11.2661 211.163 695
5.38118 9.59599 212.802 696
4.55377 13.9384 210.548 697
4.55442 15.9428 212.597 698
1.31708 0.151215 179.892 699
1.24618 8.25967 208.089 700
1.24682 10.264 210.138 701
2.07267 10.932 207.474 702
3.72661 9.26184 209.113 703
2.07333 12.9362 209.523 704
4.55532 8.928 215.466 705
4.55596 10.9323 217.515 706
5.38183 11.6003 214.851 707
6.20834 14.2726 214.236 708
6.20899 16.2769 216.285 709
2.90204 12.6024 215.876 710
2.90268 14.6068 217.925 711
3.72855 15.2748 215.261 712
5.38247 13.6046 216.9 713
2.9023 3.58341 216.695 714
2.90294 5.5877 218.744 715
3.72881 6.2557 216.08 716
5.38273 4.58556 217.72 717
0.411044 1.59842 184.553 718
0.421027 3.59496 186.549 719
2.07142 1.92598 188.198 720
0.415092 0.57851 193.538 721
1.24229 1.25065 190.872 722
1.24333 3.25008 192.922 723
2.07172 3.91901 190.254 724
3.72295 2.24997 191.898 725
0.41632 2.58109 195.588 726
2.06963 0.910898 197.228 727
1.10493 2.8753 179.427 728
1.27807 2.20829 181.988 729
1.26386 4.27058 183.867 730
2.06524 4.92512 181.043 731
3.74685 3.27297 182.792 732
1.24364 0.24265 199.892 733
1.24438 2.24673 201.941 734
2.07042 2.9147 199.277 735
3.72415 1.24467 200.917 736
0.418445 1.57877 204.605 737
2.07488 7.92584 214.441 738
1.24747 12.2683 212.187 739
2.07399 14.9406 211.572 740
3.72791 13.2704 213.212 741
4.5566 12.9366 219.564 742
4.55725 14.9409 221.613 743
5.38312 15.6089 218.949 744
4.55686 3.91756 220.384 745
4.5575 5.92187 222.433 746
5.38337 6.58985 219.769 747
2.90358 7.59201 220.793 748
2.90422 9.59631 222.843 749
3.73009 10.2643 220.179 750
5.38401 8.59416 221.818 751
1.2471 1.24494 210.958 752
2.07298 1.91292 208.294 753
3.72689 0.242795 209.933 754
2.93143 0.601502 183.51 755
3.75429 1.4793 180.583 756
4.54528 0.926433 187.196 757
3.71954 0.24926 189.855 758
0.419072 3.58303 206.655 759
2.07361 3.91722 210.343 760
1.24902 7.25785 217.105 761
1.24967 9.26216 219.154 762
2.07553 9.93015 216.49 763
3.72945 8.26001 218.13 764
2.07617 11.9344 218.539 765
6.21117 13.2708 223.252 766
6.21181 15.2751 225.301 767
4.55815 7.92617 224.482 768
4.55879 9.93047 226.531 769
5.38466 10.5984 223.867 770
2.90488 11.6007 224.892 771
2.90552 13.6049 226.941 772
3.73138 14.2729 224.277 773
5.3853 12.6028 225.916 774
0.421229 0.57695 213.622 775
0.42187 2.58126 215.671 776
1.24774 3.24924 213.007 777
1.24837 5.25355 215.056 778
2.07424 5.92153 212.392 779
3.72817 4.25139 214.031 780
2.90292 2.60647 185.501 781
2.90078 4.58472 187.575 782
3.73234 5.24041 184.884 783
4.55155 2.92226 189.229 784
4.55055 4.91886 191.283 785
5.37776 5.58376 188.614 786
2.89589 1.57969 194.563 787
2.89665 3.58274 196.613 788
3.72327 4.25098 193.949 789
4.5502 1.91275 198.252 790
4.5508 3.91675 200.302 791
5.37695 4.58464 197.638 792
2.89822 0.576657 203.581 793
2.89887 2.5809 205.63 794
3.7248 3.24884 202.966 795
4.55277 0.910784 207.269 796
4.55341 2.91507 209.318 797
2.90166 1.5791 214.646 798
3.72753 2.24709 211.982 799
4.55622 1.91326 218.334 800
2.90448 0.577278 223.662 801
3.73035 1.24527 220.998 802
2.07772 6.92402 223.457 803
1.25031 11.2664 221.203 804
2.07681 13.9388 220.589 805
3.73074 12.2687 222.228 806
2.07747 15.9431 222.638 807
4.55943 11.9348 228.58 808
4.56008 13.9391 230.629 809
5.38594 14.6071 227.965 810
2.90616 15.6092 228.99 811
2.90642 6.59019 229.81 812
2.90706 8.59449 231.859 813
3.73293 9.26248 229.195 814
5.38684 7.59233 230.834 815
1.24993 0.243119 219.974 816
2.07579 0.91111 217.31 817
2.07643 2.91541 219.359 818
4.55905 0.911438 227.351 819
2.90513 2.58158 225.711 820
2.90578 4.58589 227.76 821
3.73164 5.25388 225.097 822
1.25185 6.25603 226.121 823
1.2525 8.26033 228.17 824
2.07837 8.92832 225.506 825
3.73228 7.25818 227.146 826
2.07901 10.9327 227.556 827
3.73202 16.2772 226.326 828
6.21464 14.2732 234.318 829
4.56073 15.9434 232.678 830
4.56099 6.92434 233.498 831
4.56163 8.92865 235.547 832
5.38749 9.59663 232.883 833
2.90771 10.5988 233.908 834
2.90835 12.6031 235.957 835
3.73422 13.2711 233.293 836
5.38814 11.601 234.932 837
0.4247 1.57943 224.687 838
1.25057 2.24742 222.023 839
1.25121 4.25172 224.072 840
2.07708 4.91971 221.408 841
3.73099 3.24957 223.047 842
3.73319 0.243445 230.014 843
4.55969 2.91574 229.4 844
4.56033 4.92004 231.449 845
5.3862 5.58804 228.785 846
2.08055 5.92219 232.473 847
1.25314 10.2647 230.219 848
1.25378 12.269 232.268 849
2.07965 12.9369 229.605 850
3.73357 11.2668 231.244 851
2.08029 14.9412 231.654 852
6.21528 16.2775 236.367 853
4.56227 10.933 237.596 854
4.56291 12.9373 239.645 855
5.38878 13.6052 236.981 856
2.90899 14.6074 238.006 857
5.38943 15.6095 239.031 858
2.90925 5.58836 238.826 859
2.90989 7.59267 240.875 860
3.73576 8.26066 238.211 861
5.38968 6.59052 239.85 862
0.425344 3.58374 226.736 863
2.07927 1.91359 228.375 864
2.90796 1.57976 234.727 865
2.90861 3.58406 236.777 866
3.73447 4.25205 234.113 867
1.25468 5.2542 235.137 868
1.25533 7.2585 237.186 869
2.08119 7.92649 234.522 870
3.73512 6.25635 236.162 871
2.08184 9.9308 236.572 872
3.73486 15.2754 235.342 873
6.21748 13.2714 243.334 874
4.56356 14.9415 241.694 875
4.56381 5.92252 242.514 876
4.56446 7.92682 244.563 877
5.39033 8.59482 241.899 878
2.91053 9.59696 242.924 879
2.91118 11.6013 244.973 880
3.73705 12.2693 242.309 881
5.39097 10.5991 243.948 882
0.427533 0.577604 233.703 883
1.2534 1.2456 231.039 884
1.25404 3.2499 233.088 885
2.07991 3.91789 230.424 886
3.73383 2.24775 232.064 887
4.56253 1.91391 238.416 888
4.56317 3.91821 240.465 889
5.38904 4.58621 237.801 890
2.08338 4.92036 241.489 891
1.25597 9.26281 239.235 892
1.25661 11.2671 241.285 893
2.08248 11.9351 238.621 894
3.7364 10.265 240.26 895
2.08312 13.9394 240.67 896
6.21812 15.2757 245.383 897
4.5651 9.93112 246.612 898
4.56574 11.9354 248.661 899
5.39161 12.6034 245.998 900
2.91182 13.6055 247.022 901
2.91246 15.6098 249.071 902
3.73833 16.2778 246.407 903
5.39225 14.6077 248.047 904
2.91208 4.58654 247.842 905
2.91272 6.59084 249.891 906
3.73859 7.25883 247.227 907
5.39251 5.58869 248.866 908
0.428175 2.58191 235.752 909
2.08209 0.911763 237.391 910
2.91079 0.57793 243.744 911
2.91143 2.58224 245.793 912
3.7373 3.25022 243.129 913
1.25752 4.25238 244.153 914
1.25817 6.25668 246.202 915
2.08402 6.92467 243.539 916
3.73795 5.25453 245.178 917
2.08467 8.92897 245.588 918
2.08377 15.9437 242.719 919
3.73769 14.2735 244.358 920
4.56639 13.9397 250.711 921
4.56703 15.9441 252.76 922
4.56664 4.92069 251.53 923
4.56729 6.92499 253.579 924
5.39315 7.59299 250.915 925
2.91337 8.59514 251.94 926
2.91402 10.5994 253.989 927
3.73987 11.2674 251.325 928
5.3938 9.5973 252.965 929
1.25623 0.243771 240.055 930
1.25687 2.24807 242.104 931
2.08274 2.91606 239.44 932
3.73666 1.24592 241.08 933
4.56536 0.912089 247.432 934
4.566 2.91639 249.481 935
1.25881 8.26098 248.252 936
1.25945 10.2653 250.301 937
2.08532 10.9333 247.637 938
3.73923 9.26313 249.276 939
2.08596 12.9376 249.686 940
6.22095 14.2739 254.399 941
6.22159 16.2782 256.448 942
4.56793 8.9293 255.628 943
4.56858 10.9336 257.678 944
5.39444 11.6016 255.014 945
2.91466 12.6037 256.038 946
2.9153 14.6081 258.087 947
3.74117 15.2761 255.423 948
5.39508 13.6059 257.063 949
2.91492 3.58471 256.858 950
2.91556 5.58901 258.907 951
3.74143 6.257 256.243 952
5.39534 4.58686 257.882 953
0.431008 1.58008 244.768 954
0.431652 3.58439 246.817 955
2.91427 1.58041 254.809 956
3.74013 2.2484 252.145 957
2.0875 7.92714 254.604 958
1.26009 12.2696 252.35 959
2.0866 14.9418 251.735 960
3.74053 13.2717 253.374 961
4.56922 12.938 259.727 962
4.56987 14.9422 261.776 963
5.39573 15.6102 259.112 964
4.56948 3.91886 260.546 965
4.57012 5.92317 262.595 966
5.39598 6.59117 259.932 967
2.9162 7.59332 260.956 968
2.91684 9.59762 263.005 969
3.74271 10.2656 260.341 970
5.39664 8.59547 261.981 971
1.25971 1.24625 251.12 972
2.08558 1.91424 248.456 973
3.73949 0.244097 250.096 974
2.08622 3.91854 250.506 975
4.56884 1.91457 258.497 976
1.26164 7.25916 257.268 977
1.26228 9.26346 259.317 978
2.08815 9.93145 256.653 979
3.74207 8.26131 258.292 980
2.08879 11.9357 258.702 981
6.22379 13.2721 263.415 982
6.22443 15.2764 265.464 983
4.57077 7.92747 264.645 984
4.57141 9.93177 266.694 985
5.39728 10.5997 264.03 986
2.91749 11.602 265.054 987
2.91813 13.6062 267.103 988
3.744 14.2742 264.44 989
5.39792 12.6041 266.079 990
0.433841 0.578255 253.784 991
0.434483 2.58256 255.833 992
1.26035 3.25055 253.169 993
1.26099 5.25485 255.219 994
2.08686 5.92284 252.555 995
3.74078 4.2527 254.194 996
2.9171 0.578583 263.825 997
3.74297 1.24657 261.161 998
2.09033 6.92532 263.62 999
1.26292 11.2677 261.366 1000
2.08943 13.9401 260.751 1001
3.74336 12.27 262.39 1002
2.09008 15.9444 262.8 1003
4.57206 11.9361 268.743 1004
4.5727 13.9404 270.792 1005
5.39857 14.6084 268.128 1006
2.91877 15.6105 269.153 1007
2.91903 6.59149 269.972 1008
2.91968 8.59578 272.021 1009
3.74555 9.26378 269.357 1010
5.39947 7.59363 270.997 1011
1.26254 0.244423 260.136 1012
2.0884 0.912415 257.473 1013
2.08905 2.91671 259.522 1014
4.57166 0.912745 267.513 1015
2.91774 2.58289 265.874 1016
2.91838 4.58719 267.923 1017
3.74425 5.25518 265.259 1018
1.26446 6.25733 266.284 1019
1.26511 8.26163 268.333 1020
2.09098 8.92962 265.669 1021
3.7449 7.25948 267.308 1022
2.09162 10.9339 267.718 1023
3.74464 16.2785 266.489 1024
6.22726 14.2745 274.48 1025
4.57333 15.9447 272.841 1026
4.5736 6.92563 273.661 1027
4.57427 8.92991 275.71 1028
5.40012 9.59793 273.046 1029
2.92034 10.6 274.07 1030
2.921 12.6044 276.119 1031
3.74684 13.2724 273.456 1032
5.40078 11.6023 275.095 1033
1.26318 2.24872 262.186 1034
1.26382 4.25303 264.235 1035
2.08969 4.92102 261.571 1036
3.74361 3.25088 263.21 1037
0.437315 1.58074 264.849 1038
3.74579 0.244758 270.177 1039
4.5723 2.91705 269.562 1040
4.57295 4.92134 271.612 1041
5.39882 5.58934 268.948 1042
2.09317 5.92349 272.636 1043
1.26577 10.2659 270.382 1044
1.26642 12.2703 272.431 1045
2.09227 12.9383 269.767 1046
3.7462 11.2681 271.407 1047
2.09291 14.9425 271.816 1048
6.22786 16.2789 276.529 1049
4.57496 10.9343 277.759 1050
4.57557 12.9387 279.808 1051
5.4014 13.6065 277.144 1052
2.92159 14.6088 278.169 1053
5.40195 15.6109 279.193 1054
2.92185 5.58957 278.988 1055
2.92262 7.59373 281.038 1056
3.74844 8.26186 278.374 1057
5.40235 6.59167 280.013 1058
0.437957 3.58504 266.899 1059
2.09187 1.9149 268.538 1060
2.92054 1.58109 274.89 1061
2.92118 3.58536 276.939 1062
3.74707 4.25335 274.275 1063
1.26729 5.25549 275.3 1064
1.26798 7.25975 277.349 1065
2.09383 7.92777 274.685 1066
3.74773 6.25762 276.325 1067
2.09452 9.93206 276.734 1068
3.74746 15.2767 275.505 1069
6.23017 13.2733 283.496 1070
4.57603 14.9431 281.857 1071
4.57652 5.92347 282.677 1072
4.57762 7.92756 284.725 1073
5.40323 8.59592 282.062 1074
2.92357 9.59819 283.086 1075
2.92412 11.6032 285.135 1076
3.74983 12.2709 282.471 1077
5.40399 10.6005 284.11 1078
1.26601 1.24691 271.202 1079
1.26664 3.25121 273.251 1080
2.09251 3.91919 270.587 1081
3.74643 2.24906 272.226 1082
0.440128 0.578932 273.866 1083
4.57504 1.91524 278.579 1084
4.5757 3.91942 280.628 1085
5.40162 4.58748 277.964 1086
2.09591 4.92142 281.653 1087
1.26872 9.26403 279.398 1088
1.26941 11.2685 281.447 1089
2.09517 11.9364 278.783 1090
3.7492 10.2663 280.422 1091
2.09573 13.9409 280.832 1092
6.23033 15.2782 285.545 1093
4.57815 9.93244 286.773 1094
4.5798 11.9397 288.82 1095
5.40429 12.606 286.158 1096
2.92351 13.6081 287.185 1097
2.92515 15.6115 289.239 1098
3.74988 16.2795 286.571 1099
5.40468 14.6117 288.209 1100
2.92423 4.58638 288.004 1101
2.9305 6.58906 290.056 1102
3.75194 7.25805 287.388 1103
5.40493 5.58649 289.036 1104
0.440749 2.58323 275.915 1105
2.09465 0.913123 277.554 1106
2.92301 0.579366 283.907 1107
2.92342 2.58321 285.955 1108
3.74975 3.25128 283.292 1109
1.26977 4.25308 284.317 1110
1.2704 6.25599 286.366 1111
2.09677 6.9253 283.702 1112
3.75048 5.25492 285.34 1113
2.098 8.92981 285.749 1114
2.09619 15.9454 282.882 1115
3.75002 14.2755 284.521 1116
4.58789 13.9495 290.877 1117
4.58879 15.9602 292.923 1118
4.5795 4.91485 291.714 1119
4.57691 6.92397 293.677 1120
5.41624 7.5959 291.077 1121
2.93568 8.59343 292.103 1122
2.92697 10.5971 294.07 1123
3.76277 11.2718 291.477 1124
5.41544 9.61281 293.111 1125
1.26872 0.245206 280.218 1126
1.26929 2.24936 282.267 1127
2.09525 2.91736 279.603 1128
3.74908 1.24725 281.243 1129
4.57709 0.914344 287.597 1130
4.57799 2.91729 289.655 1131
1.27298 8.26035 288.41 1132
1.27811 10.2669 290.461 1133
2.09843 10.9355 287.797 1134
3.75412 9.26252 289.436 1135
2.09996 12.9411 289.854 1136
6.20992 14.2509 294.494 1137
6.24179 16.2519 296.419 1138
4.58051 8.92864 295.652 1139
5.3772 11.6059 295.113 1140
2.90891 12.5988 296.04 1141
1.9736 12.1445 178.321 1142
3.74861 15.2731 295.466 1143
0.443142 1.58161 284.932 1144
0.442754 3.58486 286.982 1145
2.89415 1.58601 294.921 1146
3.75244 2.24846 292.329 1147
2.07698 7.91248 294.672 1148
1.27543 12.2649 292.517 1149
2.1048 14.9416 291.912 1150
3.74784 13.2772 293.483 1151
1.28067 1.25017 291.285 1152
2.09795 1.91547 288.62 1153
3.75634 0.249142 290.267 1154
2.10402 3.91872 290.673 1155
2.79604 1.26685 177.881 1156
0.44475 0.574818 293.879 1157
1.2625 3.25792 293.293 1158
1.25398 5.26803 295.279 1159
2.10415 5.91638 292.705 1160
3.72121 4.24261 294.317 1161
0.427908 2.58009 295.847 1162
